{
  "project_info": {
    "project_number": "595929988356",
    "firebase_url": "https://upmart-43dbc-default-rtdb.firebaseio.com",
    "project_id": "upmart-43dbc",
    "storage_bucket": "upmart-43dbc.appspot.com"
  },
  "client": [
    {
      "client_info": {
        "mobilesdk_app_id": "1:595929988356:android:a86b1ac11a1453e666a451",
        "android_client_info": {
          "package_name": "com.customer.upmart"
        }
      },
      "oauth_client": [
        {
          "client_id": "595929988356-r100fepa9eh3l9vmfle1nc7e9786tqrc.apps.googleusercontent.com",
          "client_type": 3
        }
      ],
      "api_key": [
        {
          "current_key": "AIzaSyBKa5TmY6ctjUlfHW4E0nqyDfAaZzRX4FU"
        }
      ],
      "services": {
        "appinvite_service": {
          "other_platform_oauth_client": [
            {
              "client_id": "595929988356-r100fepa9eh3l9vmfle1nc7e9786tqrc.apps.googleusercontent.com",
              "client_type": 3
            },
            {
              "client_id": "595929988356-h0gkumfe39gahgmjia6q45pp11e1jcvc.apps.googleusercontent.com",
              "client_type": 2,
              "ios_info": {
                "bundle_id": "com.customer.upmart"
              }
            }
          ]
        }
      }
    },
    {
      "client_info": {
        "mobilesdk_app_id": "1:595929988356:android:69e721923695233a66a451",
        "android_client_info": {
          "package_name": "com.driver.upmart"
        }
      },
      "oauth_client": [
        {
          "client_id": "595929988356-r100fepa9eh3l9vmfle1nc7e9786tqrc.apps.googleusercontent.com",
          "client_type": 3
        }
      ],
      "api_key": [
        {
          "current_key": "AIzaSyBKa5TmY6ctjUlfHW4E0nqyDfAaZzRX4FU"
        }
      ],
      "services": {
        "appinvite_service": {
          "other_platform_oauth_client": [
            {
              "client_id": "595929988356-r100fepa9eh3l9vmfle1nc7e9786tqrc.apps.googleusercontent.com",
              "client_type": 3
            },
            {
              "client_id": "595929988356-h0gkumfe39gahgmjia6q45pp11e1jcvc.apps.googleusercontent.com",
              "client_type": 2,
              "ios_info": {
                "bundle_id": "com.customer.upmart"
              }
            }
          ]
        }
      }
    }
  ],
  "configuration_version": "1"
}