<svg height="24" width="24" xmlns="http://www.w3.org/2000/svg">
    <path d="M0 0h24v24H0z" fill="none" />
    <path
        d="M8.783 17.185a1.741 1.741 0 101.745 1.741 1.741 1.741 0 00-1.745-1.741zM3.547 3.256v1.741h1.745l3.141 6.607-1.177 2.133a1.68 1.68 0 00-.218.836 1.748 1.748 0 001.745 1.741h10.471v-1.741H9.147a.216.216 0 01-.218-.218l.026-.1.792-1.423h6.5a1.738 1.738 0 001.527-.9l3.124-5.65a.849.849 0 00.1-.418.874.874 0 00-.873-.871H7.221l-.82-1.737H3.547zm13.962 13.929a1.741 1.741 0 101.745 1.741 1.741 1.741 0 00-1.745-1.741z"
        fill="#707070" />
</svg>