<svg id="Product" xmlns="http://www.w3.org/2000/svg" width="512" height="512" viewBox="0 0 512 512">
  <path id="Path_43706" data-name="Path 43706" d="M30,512H482a30.033,30.033,0,0,0,30-30V110a10,10,0,0,0-10-10H432a100,100,0,0,0-200,0H156a10,10,0,0,0-10,10V226H10A10,10,0,0,0,0,236V482A30.033,30.033,0,0,0,30,512ZM20,482V446H252v36a10.009,10.009,0,0,1-10,10H30A10.009,10.009,0,0,1,20,482Zm462,10H270.281A29.859,29.859,0,0,0,272,482V446H492v36a10.009,10.009,0,0,1-10,10ZM332,20a80.089,80.089,0,0,1,80,80H252A79.947,79.947,0,0,1,332,20ZM166,120h66v46H222a10,10,0,0,0,0,20h40a10,10,0,0,0,0-20H252V120H412v46H402a10,10,0,0,0,0,20h40a10,10,0,0,0,0-20H432V120h60V426H272V236a10,10,0,0,0-10-10H166Zm86,126V426H20V246Zm0,0"/>
  <path id="Path_43707" data-name="Path 43707" d="M76,306v20a60,60,0,0,0,120,0V306a10,10,0,0,0,0-20H176a10,10,0,0,0,0,20v20a40,40,0,0,1-80,0V306a10,10,0,0,0,0-20H76a10,10,0,0,0,0,20Zm0,0"/>
  <path id="Path_43708" data-name="Path 43708" d="M462,346a10,10,0,0,0,10-10V256a10,10,0,0,0-20,0v80A10,10,0,0,0,462,346Zm0,0"/>
</svg>
